1 10 20
100 200 125
201 210 89
900 1000 174
863628 73723 525
550541 461463 470
564924 830691 509
876189 909705 445
433207 870877 525
916871 423975 525
565891 663846 509
705829 136101 509
103501 111649 354
243504 405067 441
784805 663582 504
522855 964098 525
141845 747210 509
393554 692025 509
350263 586970 470
331747 713513 509
548199 756094 509
495536 947846 525
516125 613240 452
541066 672192 509
970324 112153 525
550085 142843 470
364332 340824 441
77048 826716 509
15521 546038 470
762342 335415 509
578085 329870 470
177923 725475 509
369055 166592 443
572623 430915 470
820566 381627 509
966621 728051 525
379452 258587 441
608064 297517 470
504343 996123 525
149506 144788 357
20799 823188 509
27872 867969 525
986606 699524 525
438812 20469 449
392218 677561 509
984851 106168 525
475421 182597 449
546422 566005 452
164670 180040 352
175858 967440 525
182119 441666 449
846665 492036 525
635239 897233 525
703840 731443 504
505013 363489 449
55760 748362 509
299052 779507 509
724112 336594 509
279567 445439 449
525590 423092 470
99000 661227 509
597536 594929 372
380201 592412 470
999449 805442 525
763408 152179 509
523250 416301 470
208870 181858 373
927419 866064 476
891815 236571 525
873606 420824 525
855577 838355 419
689031 658824 442
699013 146015 509
703974 568468 509
965986 609110 525
320879 397942 441
577511 322912 470
160073 684705 509
601273 481816 470
596827 214379 470
888576 540626 525
755469 11130 509
625391 436258 470
558471 845405 525
642004 496875 509
741921 159939 509
404893 471077 449
843520 761227 525
974783 446722 525
45206 101194 351
856468 297100 525
409744 482605 449
588796 691593 509
489101 61761 449
127357 638641 509
502141 93350 449
557735 990714 525
280159 464842 449
443798 334182 449
960994 201610 525
163364 211381 373
975950 289000 525
912649 677829 525
218459 853862 525
671300 784468 504
409419 475586 449
311366 692971 509
581352 155498 470
206466 781573 509
292010 263470 407
151466 279525 443
647781 601932 509
138365 680221 509
468223 579986 470
550661 426183 470
955288 374112 525
636347 133513 509
44256 867005 525
698782 929081 525
208153 102367 383
305002 310649 371
863382 971017 507
952694 308264 525
681517 852469 525
59858 624704 470
50730 976164 525
845312 863386 419
649976 337847 509
653530 914094 525
600116 109097 470
543916 60031 470
938315 611826 525
512470 394110 470
225583 94585 386
542886 688074 509
942018 743824 525
794492 944946 525
950305 590771 525
626042 483470 470
715236 233400 509
827206 552617 509
155519 582990 470
383725 154905 443
973839 166064 525
337536 969179 525
62129 865046 525
819784 6685 509
111240 364750 443
132471 908651 525
867650 986860 507
833628 599294 509
574620 40862 470
141200 345050 443
11134 297394 443
612489 139010 470
199227 698807 509
978797 728948 525
288754 961755 525
219064 537998 470
348399 297899 441
441605 188946 449
792684 81394 509
909682 336272 525
956971 925569 507
594481 34485 470
895939 296291 525
968165 926955 507
825714 485761 509
360051 126391 443
755836 498047 509
90519 776213 509
764471 156443 509
770142 931563 525
58719 532781 470
605635 579292 434
431647 620117 470
289529 328212 384
978616 22739 525
67139 544064 470
967697 321254 525
872180 478052 525
572484 685526 509
1554 243471 443
770284 254548 509
660125 331858 509
84692 779859 509
847932 728286 525
8751 37899 324
485136 584787 470
883394 556759 525
374101 841606 525
725571 274035 509
583343 147875 470
1469 845076 525
104706 926453 525
622427 454667 470
182968 452118 449
504659 150257 449
546170 367930 470
878582 911103 476
875323 151535 525
159579 895273 525
243761 661301 509
599187 565207 434
929224 41627 525
124244 682595 509
955900 947421 414
741195 484621 509
958980 259632 525
633781 706138 504
480874 206928 449
614530 496158 470
606126 82991 470
903967 692070 525
921114 554579 525
306166 361259 441
145031 892420 525
725267 997404 525
420185 325159 449
624780 267437 470
172562 116004 383
470009 745267 509
657655 892364 525
413621 639599 509
791944 220715 509
485374 125756 449
636990 412054 509
329271 525171 470
950979 67757 525
94831 241295 443
551635 931292 525
433940 56905 449
844783 198154 525
680703 125386 509
764443 554580 509
198947 747304 509
543186 864974 525
570493 813671 509
185590 608679 470
767063 618548 509
252967 878608 525
699644 596207 509
584163 997443 525
571356 421842 470
875063 581502 525
273382 829860 509
618538 188051 470
658191 450085 509
766927 518749 509
900303 939725 507
620746 520067 452
312063 697767 509
870173 620958 525
920350 488478 525
