790558 577395 509
555177 734810 509
506348 28035 449
218356 395309 443
687060 480554 509
167575 825663 509
238396 558091 470
206939 28376 383
574970 291373 470
366190 544747 470
959156 217179 525
418951 477669 444
903451 346151 525
309346 834612 509
923464 518225 525
138495 406821 443
942153 502770 525
98449 313562 443
398836 290382 441
415712 803896 509
604927 791667 509
675840 610100 509
897008 937850 476
834044 223676 509
250434 117994 443
883243 444577 525
828626 741633 468
146115 194065 383
354877 527761 470
591285 217828 470
5415 415615 449
573924 433450 470
179813 670266 509
108644 957020 525
56284 692047 509
518771 192437 470
775702 520527 509
861674 323088 525
40457 280007 443
134709 916310 525
968372 949151 414
937576 435750 525
552604 166962 470
380848 865593 525
569126 158722 470
518895 764164 509
128556 778548 509
443919 345704 449
426626 610821 470
152635 370576 443
402507 88747 443
67233 520986 470
570146 153097 470
245151 246852 332
876401 884213 401
609794 953962 525
911769 668370 525
585900 983275 525
642576 720434 504
905912 81145 525
732423 947349 525
389640 971373 525
704169 584208 509
464801 926236 525
180844 482588 449
845036 52642 525
386369 6503 443
239358 530209 470
461392 33816 449
790643 956408 525
990478 927018 507
96687 811412 509
91600 80019 333
199739 465555 449
862944 88684 525
860594 931720 476
88845 759320 509
63828 344214 443
594163 943128 525
739566 675624 504
316203 266363 407
705413 71760 509
719771 444687 509
956693 668267 525
84051 572036 470
49120 875506 525
913 680786 509
170465 584088 470
251116 201922 443
726180 888937 525
314062 489722 449
128730 865191 525
283382 580422 470
51684 563754 470
452461 688809 509
937146 835734 525
779012 443681 509
128156 744081 509
904250 184263 525
905212 282352 525
768329 642358 504
444654 292918 449
189999 313879 443
532142 791724 509
175334 210104 373
194325 686065 509
404243 440981 449
401784 261032 441
965099 171440 525
749675 763434 424
757988 300450 509
707759 697693 504
874292 893672 445
110025 35385 354
886541 567410 525
192442 799402 509
154374 487224 449
289572 953837 525
333320 446142 449
440529 650912 509
911114 714744 525
131404 541481 470
534395 780646 509
873237 137226 525
531171 521229 408
139936 565870 470
81925 709344 509
219185 768064 509
105713 338156 443
78985 20692 351
216067 408501 443
741776 544952 509
845914 950730 507
976702 277569 525
802804 878534 525
407357 768237 509
459091 108901 449
642230 403817 509
548996 195781 470
788995 932683 525
114063 752333 509
238245 598041 470
76978 90179 351
933374 670293 525
688312 745718 504
968999 213173 525
455990 723773 509
219255 484238 449
934568 534289 525
529832 126542 470
150140 194283 383
330301 758259 509
866536 856683 388
246508 101117 443
517935 454136 470
768911 175338 509
994789 660959 525
126133 882764 525
484136 943065 525
641913 462368 509
294304 615429 470
791352 134363 509
742523 827972 468
695342 776480 504
759582 942338 525
643128 59757 509
663568 83237 509
157027 413478 449
906464 983429 507
298783 42235 443
878978 417031 525
686409 325835 509
837536 134167 509
246044 356944 441
843789 688955 525
148204 412377 449
402540 899771 525
815699 550218 509
643983 896256 525
767573 240087 509
801864 792091 468
95052 163173 383
519 455366 449
209533 549021 470
378399 60713 443
815453 169149 509
600703 590100 403
453582 862670 525
993289 175875 525
91040 981239 525
628612 706721 504
40201 769696 509
658901 740412 504
626256 523957 452
796861 559639 509
7650 452936 449
611013 859609 525
866478 360872 525
992135 757324 525
377222 840203 525
651269 491423 509
826342 441221 509
508232 626175 470
555652 333432 470
869857 844140 419
333888 851158 525
262379 739800 509
620042 713179 509
260252 916785 525
851388 399163 525
235820 992202 525
16575 329125 443
935658 590276 525
635498 613041 509
219755 642508 509
45172 452699 449
212691 924323 525
309408 910946 525
866601 538988 525
421013 313510 449
265286 636624 509
393897 633987 509
710349 819994 468
458695 515964 470
301678 314491 384
530758 593478 452
370716 897385 525
342935 396101 441
630254 88379 509
314462 471147 449
336474 560935 470
254598 972728 525
167224 812892 509
609987 679064 509
163910 502725 449
109315 642986 509
816655 246955 509
65213 528103 470
975468 354292 525
256906 728372 509
321625 355167 441
513696 487852 470
947662 390672 525
595705 481973 470
162743 830706 509
507449 385875 449
31683 705043 509
904356 862222 445
876561 933481 476
230365 770043 509
419943 143077 449
298589 323485 384
186656 295366 443
487897 125272 449
78155 689937 509
690283 641565 442
712732 348747 509
988720 526926 525
978203 55410 525
554928 563684 390
114458 868926 525
128162 643886 509
552049 513462 452
438670 688316 509
200102 70771 383
494066 520940 470
668645 616856 509
345908 94301 443
395476 94371 443
209836 254631 443
801034 409320 509
82702 588469 470
631419 73000 509
923533 711756 525
859149 387980 525
220105 658744 509
990417 64931 525
91694 734684 509
542600 824640 509
708805 559509 509
513210 725795 509
986505 488102 525
782447 761285 468
310421 40920 443
803792 894504 525
966954 407332 525
353814 662444 509
56176 720795 509
287132 208136 443
543389 447655 470
957971 229195 525
876080 120709 525
365163 190007 443
602067 52025 470
524750 126443 470
166521 336887 443
99074 232705 443
543181 388666 470
211769 650892 509
222750 660015 509
