741241 911302 525
687480 653885 442
9857 325624 443
653906 69271 509
860982 406372 525
420181 411829 387
609598 425748 470
253491 344302 407
978181 801539 525
764311 753944 380
409295 869742 525
440213 132416 449
732307 670414 504
413452 129618 449
963908 754525 525
898047 705149 525
182178 585526 470
875385 192034 525
911149 45643 525
777657 288482 509
452014 197837 449
700310 577963 509
139937 470152 449
922265 118117 525
271691 686575 509
388412 197337 443
72668 828624 509
846105 804974 525
15389 775908 509
934591 979297 507
530432 348989 470
200797 712610 509
450866 592533 470
420995 362014 449
638175 198651 509
166847 90188 383
912840 867156 476
668151 52776 509
337308 106767 443
687244 125350 509
793341 75655 509
839038 382360 525
420631 685142 509
187333 436019 449
461049 638276 509
931667 507833 525
987264 132463 525
736794 438130 509
241348 157788 443
316495 879522 525
872791 999694 507
486062 785630 509
866849 670564 525
354757 720508 509
777330 558352 509
362209 87022 443
634006 201247 509
469381 54636 449
402740 656713 509
7007 863789 525
811340 938673 525
371621 314956 441
587488 624766 447
269437 828835 509
782553 585931 509
224708 655343 509
101976 710769 509
957324 968825 414
381332 828432 509
205684 675013 509
386783 567893 470
762034 20789 509
285491 231414 407
591776 688230 509
404479 598782 470
68370 215818 383
53807 956342 525
47125 641294 509
581107 316561 470
470128 880012 525
418844 211187 449
535354 520819 408
921956 9030 525
5995 819639 509
837461 211679 509
494652 224244 449
295923 256685 407
761384 97765 509
4451 353159 443
785994 925281 525
468293 370716 449
657450 522099 509
327057 704575 509
679744 424516 509
21135 666223 509
304527 439978 449
877409 839880 432
960797 799364 525
848909 966791 507
135355 202722 383
694821 630006 442
426965 990743 525
886690 188348 525
88507 407492 443
57858 390853 443
332772 42502 443
277920 990222 525
80952 604976 470
694796 760695 504
29491 232282 443
426917 334017 449
672260 304326 509
690249 633056 442
620041 55509 470
116198 755395 509
258230 811019 509
385400 685194 509
318113 788442 509
389893 922972 525
712285 447751 509
830176 45057 509
490252 108095 449
551630 571204 421
713070 762777 424
331898 258913 407
995058 275167 525
109281 667317 509
95844 315881 443
816724 715884 468
371390 932922 525
987631 629619 525
743940 373030 509
831165 578404 509
677823 221057 509
501375 390108 449
185159 331550 443
951516 191763 525
439644 503145 444
762966 669066 504
782273 611215 509
444330 777330 509
886381 553610 525
444647 498576 444
869491 261370 525
214460 757232 509
710643 202090 509
903202 970934 507
91471 734366 509
549338 285646 470
471775 50712 449
192105 656933 509
898614 143620 525
848695 338257 525
163116 128012 383
523674 945388 525
255579 968003 525
722717 658311 504
521613 683715 509
156887 907455 525
461437 371346 449
664686 172079 509
89787 567887 470
659365 697609 442
818605 208702 509
983254 806731 525
775765 691710 504
980015 674378 525
835329 345062 509
12635 514796 470
473073 536308 470
460183 245003 449
20663 699252 509
903314 58627 525
899318 60200 525
966081 360754 525
947897 147118 525
49185 554035 470
231356 708549 509
251643 566312 470
433602 751249 509
373042 209366 443
442958 353057 449
883744 794639 525
698118 412730 509
309434 687542 509
465389 285969 449
932545 486051 525
501572 835858 509
61029 400889 443
412409 543461 470
277995 360305 441
690578 327179 509
914339 438286 525
552079 682333 509
4597 985680 525
949933 377639 525
711397 909243 525
247047 111492 443
703881 945164 525
524221 529666 408
149057 505962 449
331986 81601 443
508364 349909 449
433810 569393 470
750798 846218 525
112853 545144 470
722874 319783 509
872322 153564 525
758068 940752 525
835897 279016 509
442783 302181 449
173006 154179 383
211423 420052 449
265671 431655 449
881567 306243 525
477673 30624 449
812204 326010 509
628576 836920 504
675919 62386 509
922664 426716 525
424955 35516 449
488211 147829 449
871650 360532 525
301392 629717 509
817635 653640 504
425085 260417 449
472173 598090 470
414595 683595 509
18142 196617 383
631602 899708 525
502860 109274 449
446683 831415 509
435283 591611 470
668334 111201 509
170348 107349 383
54268 595302 470
142865 542478 470
259482 14514 443
419361 560874 470
160583 753347 509
730865 585667 509
13763 203037 383
183756 944710 525
402984 718249 509
141326 34585 354
134309 644185 509
660210 97343 509
991952 95492 525
688953 176637 509
723045 859300 525
